Homework 9
…
LASSO_wkf <-workflow() |>
  add_recipe(MLR_rec1) |>
  add_model(LASSO_spec)

#Fitting the model
LASSO_grid <-LASSO_wkf |>
  tune_grid(resamples = bike_10_fold,
            grid = grid_regular(penalty(), levels = 200)) 
LASSO_grid[1, ".metrics"][[1]]

[[1]]
# A tibble: 400 × 5
    penalty .metric .estimator .estimate .config               
      <dbl> <chr>   <chr>          <dbl> <chr>                 
 1 1   e-10 rmse    standard       4784. Preprocessor1_Model001
 2 1.12e-10 rmse    standard       4784. Preprocessor1_Model002
 3 1.26e-10 rmse    standard       4784. Preprocessor1_Model003
 4 1.41e-10 rmse    standard       4784. Preprocessor1_Model004
 5 1.59e-10 rmse    standard       4784. Preprocessor1_Model005
 6 1.78e-10 rmse    standard       4784. Preprocessor1_Model006
 7 2.00e-10 rmse    standard       4784. Preprocessor1_Model007
 8 2.25e-10 rmse    standard       4784. Preprocessor1_Model008
 9 2.52e-10 rmse    standard       4784. Preprocessor1_Model009
10 2.83e-10 rmse    standard       4784. Preprocessor1_Model010
# ℹ 390 more rows
…
tree_wkf <- workflow() |>
  add_recipe(MLR_rec1) |>
  add_model(tree_mod)

tree_grid <- grid_regular(cost_complexity(),
                          tree_depth(),
                          levels = c(10, 5))

tree_fits <- tree_wkf |> 
  tune_grid(resamples = bike_10_fold,
            grid = tree_grid)
tree_fits |>
  collect_metrics() 

# A tibble: 100 × 8
   cost_complexity tree_depth .metric .estimator     mean     n  std_err .config
             <dbl>      <int> <chr>   <chr>         <dbl> <int>    <dbl> <chr>  
 1    0.0000000001          1 rmse    standard   6432.       10 350.     Prepro…
 2    0.0000000001          1 rsq     standard      0.595    10   0.0484 Prepro…
 3    0.000000001           1 rmse    standard   6432.       10 350.     Prepro…
 4    0.000000001           1 rsq     standard      0.595    10   0.0484 Prepro…
 5    0.00000001            1 rmse    standard   6432.       10 350.     Prepro…
 6    0.00000001            1 rsq     standard      0.595    10   0.0484 Prepro…
 7    0.0000001             1 rmse    standard   6432.       10 350.     Prepro…
 8    0.0000001             1 rsq     standard      0.595    10   0.0484 Prepro…
 9    0.000001              1 rmse    standard   6432.       10 350.     Prepro…
10    0.000001              1 rsq     standard      0.595    10   0.0484 Prepro…
# ℹ 90 more rows
…
tree_fits |>
  collect_metrics() |>
  filter(.metric == "rmse") |>
  arrange(mean)

# A tibble: 50 × 8
   cost_complexity tree_depth .metric .estimator  mean     n std_err .config    
             <dbl>      <int> <chr>   <chr>      <dbl> <int>   <dbl> <chr>      
 1    0.001                11 rmse    standard   3817.    10    285. Preprocess…
 2    0.001                15 rmse    standard   3817.    10    285. Preprocess…
 3    0.0000000001         11 rmse    standard   3837.    10    302. Preprocess…
 4    0.000000001          11 rmse    standard   3837.    10    302. Preprocess…
 5    0.00000001           11 rmse    standard   3837.    10    302. Preprocess…
 6    0.0000001            11 rmse    standard   3837.    10    302. Preprocess…
 7    0.000001             11 rmse    standard   3837.    10    302. Preprocess…
 8    0.00001              11 rmse    standard   3837.    10    302. Preprocess…
 9    0.0001               11 rmse    standard   3837.    10    302. Preprocess…
10    0.0000000001         15 rmse    standard   3837.    10    302. Preprocess…
# ℹ 40 more rows
…
